{
    "prepare_queue": {
        "installed": [],
        "uninstalled": []
    },
    "config_munge": {
        "files": {}
    },
    "installed_plugins": {
        "cordova-plugin-console": {
            "PACKAGE_NAME": "com.ionicframework.app885499"
        },
        "cordova-plugin-device": {
            "PACKAGE_NAME": "com.ionicframework.app885499"
        },
        "cordova-plugin-geolocation": {
            "PACKAGE_NAME": "com.ionicframework.app885499"
        },
        "cordova-plugin-network-information": {
            "PACKAGE_NAME": "com.ionicframework.app885499"
        },
        "cordova-plugin-statusbar": {
            "PACKAGE_NAME": "com.ionicframework.app885499"
        },
        "cordova-plugin-whitelist": {
            "PACKAGE_NAME": "com.ionicframework.app885499"
        },
        "cordova-plugin-camera": {
            "PACKAGE_NAME": "com.intelect.distribution"
        }
    },
    "dependent_plugins": {
        "cordova-plugin-compat": {
            "PACKAGE_NAME": "com.intelect.distribution"
        }
    }
}